677535 122660
9793 392309
693318 805292
821858 94513
891784 397621
256495 885280
747816 918353
247872 687042
717330 296807
826827 114356
816314 382952
458822 982109
904773 513882
235687 822734
883511 787491
706020 619507
668619 531041
274788 577300
259312 162416
365207 716641
55924 162268
233732 584874
303348 507085
91961 514255
2780 232090
714400 420024
850987 255418
378084 70508
456728 905256
184840 341024
763915 42996
340232 137127
321773 439386
463950 438760
90218 771126
616098 390763
957341 169904
599316 22170
45797 512546
39740 22756
821096 123756
378583 521846
85114 727447
476240 156305
933723 846079
266880 888410
706012 218079
187070 993865
313183 829297
20096 203056
74501 850532
241358 320496
388439 868149
218055 314583
513365 46309
459462 860515
790230 247
643151 763955
604235 164208
262387 474614
784553 611593
874022 455855
920360 152865
178723 659426
157728 19884
573193 579542
449446 487465
530978 28089
553248 295197
285278 380120
246637 110000
220502 892252
821719 142906
933453 668242
563779 131220
564415 293156
16326 770905
262176 85058
733285 724300
565200 452441
442822 784591
324598 685378
867745 26714
391728 401742
977900 552611
586260 278909
428448 332803
629972 167798
7428 336432
194368 461946
711028 178170
97048 150975
252496 199896
982524 854385
927458 335205
478286 306881
461980 257926
39972 46802
279241 179236
220082 105643
732553 277896
176931 705581
20528 899503
486499 696883
109257 15710
335624 781185
492521 267645
583920 679140
286452 314752
854234 641202
366691 597335
760484 415711
306889 994559
681808 881590
50057 169847
109473 841493
693251 862479
492172 411340
956783 535220
333554 69617
811558 374147
525164 80636
475221 650840
814314 363726
556885 310563
287038 355258
977324 71075
337911 474320
200199 748877
279719 767615
483130 312583
579997 295601
668668 869029
206085 716401
254811 24964
595332 824896
707789 457390
524903 623919
841583 55729
345701 870521
906204 888245
294815 791045
336989 672105
167513 661093
35164 403911
834941 55572
237222 180298
845833 661276
534535 142045
10757 253001
767239 285247
426982 376911
872681 527275
521734 929125
709098 885185
863493 480641
524702 768989
663353 214603
256339 715881
312639 614018
243688 305193
924308 796541
490632 463114
715117 698379
45889 167437
770164 729723
594517 125987
514913 93662
503018 948342
120175 233688
209011 292149
893003 331058
955381 984230
283033 258679
231248 555644
295505 65140
740565 942015
804416 609517
734752 256466
207507 867895
1025 404270
460036 247781
179926 957260
25386 934476
797244 22499
697358 398923
288782 334615
189669 612814
543295 926384
412114 470396
891940 624111
910318 892908
294919 449547
813261 155876
27033 225566
637285 668175
986107 300648
760526 742169
321202 669811
437851 244314
525790 326995
623871 348489
422300 143048
774977 463149
387558 23368
115400 113486
724948 796178
421930 741216
502307 806237
39965 881264
553017 297152
843839 946117
605620 197818
982373 599559
651760 47134
672279 500378
220537 253832
606843 904443
122174 233652
202847 524357
208817 990756
977827 474495
956768 276325
170049 539647
986126 627926
634203 332107
321120 606568
637733 716944
772700 802271
462834 668096
207041 239907
549412 179292
822555 77564
346187 728521
712164 113066
771368 850609
921124 277415
761356 826031
118206 491018
397984 278378
236996 338033
59318 469652
909707 508133
448090 566559
237532 296867
480909 138502
247081 583607
333505 930989
764084 3698
926068 518017
158953 210081
229875 533175
513212 516669
367201 940118
